[
{
  "assaultFacts": "6 out of 10 women think about the risk of \n being assaulted when walking alone in the evening"
}, {
  "assaultFacts": "6 out of 10 women would rather avoid walking outside \n when darkness has fallen"
}, {
  "assaultFacts": "25 percent of all episodes of violence take place \n outdoors on eg streets, roads, path systems and parks"
}, {
  "assaultFacts": "In 36 percent of cases, the victim \n and perpetrator are unknown to each other"
}, {
  "assaultFacts": "43 percent of the victims of simple violence \n in 2020 were women. 25 percent of the victims \n of serious violence were women"
}, {
  "assaultFacts": "Last year, 1041 women were raped in Denmark"
}
]
